{"content":[{"id":149845,"applicant":{"fullName":"Алексей Карчевский","userName":"master","email":"a.karchevski@pflb.ru","location":"142784, г.Москва, Киевское шоссе, 22-й км,\nБП ComCity, домовл.6, стр.1","phone":"8 (000) 123-45-67","mobilePhone":"8 (000) 123-45-67","id":106},"header":"It's me","text":"IOS","createDate":1575277412910,"lastEditDate":1575277412914,"ticketState":"Новый","ticketStateId":-1,"serviceId":2946,"syncMask":"PORTAL_ONLY","location":"256 Бинарная ул. 16","address":"256 Бинарная ул. 16","categories":["Технологическое оборудование","Автоматические  ворота и двери","Рольставни"],"category1":"Технологическое оборудование","category2":"Автоматические  ворота и двери","category3":"Рольставни","openCommunications":0,"totalCommunications":0,"actions":[]},{"id":149844,"applicant":{"fullName":"Алексей Карчевский","userName":"master","email":"a.karchevski@pflb.ru","location":"142784, г.Москва, Киевское шоссе, 22-й км,\nБП ComCity, домовл.6, стр.1","phone":"8 (000) 123-45-67","mobilePhone":"8 (000) 123-45-67","id":106},"header":"It's me","text":"IOS","createDate":1575277411318,"lastEditDate":1575277411329,"ticketState":"Новый","ticketStateId":-1,"serviceId":2837,"syncMask":"PORTAL_ONLY","location":"default location","address":"default location","categories":["Инженерия","Электрооборудование","Внутреннее освещение торгового зала и подсобных помещений"],"category1":"Инженерия","category2":"Электрооборудование","category3":"Внутреннее освещение торгового зала и подсобных помещений","openCommunications":0,"totalCommunications":0,"actions":[]},{"id":149843,"applicant":{"fullName":"Алексей Карчевский","userName":"master","email":"a.karchevski@pflb.ru","location":"142784, г.Москва, Киевское шоссе, 22-й км,\nБП ComCity, домовл.6, стр.1","phone":"8 (000) 123-45-67","mobilePhone":"8 (000) 123-45-67","id":106},"header":"It's me","text":"IOS","createDate":1575277409555,"lastEditDate":1575277409560,"ticketState":"Новый","ticketStateId":-1,"serviceId":2963,"syncMask":"PORTAL_ONLY","location":"default location","address":"default location","categories":["Технологическое оборудование","Холодильное оборудование","Холодильная камера"],"category1":"Технологическое оборудование","category2":"Холодильное оборудование","category3":"Холодильная камера","openCommunications":0,"totalCommunications":0,"actions":[]},{"id":149842,"applicant":{"fullName":"Алексей Карчевский","userName":"master","email":"a.karchevski@pflb.ru","location":"142784, г.Москва, Киевское шоссе, 22-й км,\nБП ComCity, домовл.6, стр.1","phone":"8 (000) 123-45-67","mobilePhone":"8 (000) 123-45-67","id":106},"header":"Промывка фасадов (в том числе - мойка вывесок с применением моющих средств)","text":"Agalarov.A.1683534111","createDate":1575276683418,"lastEditDate":1575276683433,"ticketState":"Новый","ticketStateId":-1,"serviceId":2786,"syncMask":"PORTAL_ONLY","location":"default location","address":"default location","categories":["Экология","Уборка помещений и прилегающей территории","Уборка прилегающей территории"],"category1":"Экология","category2":"Уборка помещений и прилегающей территории","category3":"Уборка прилегающей территории","openCommunications":0,"totalCommunications":0,"actions":[]},{"id":149841,"applicant":{"fullName":"Алексей Карчевский","userName":"master","email":"a.karchevski@pflb.ru","location":"142784, г.Москва, Киевское шоссе, 22-й км,\nБП ComCity, домовл.6, стр.1","phone":"8 (000) 123-45-67","mobilePhone":"8 (000) 123-45-67","id":106},"header":"Из Ларь Бонеты течет вода","text":"Agalarov.A.1385028116","createDate":1575276442347,"lastEditDate":1575276442351,"ticketState":"Новый","ticketStateId":-1,"serviceId":3006,"syncMask":"PORTAL_ONLY","location":"default location","address":"default location","categories":["Технологическое оборудование","Холодильное оборудование","Ларь Бонета"],"category1":"Технологическое оборудование","category2":"Холодильное оборудование","category3":"Ларь Бонета","openCommunications":0,"totalCommunications":0,"smhoClass":"D","actions":[]},{"id":149840,"applicant":{"fullName":"Алексей Карчевский","userName":"master","email":"a.karchevski@pflb.ru","location":"142784, г.Москва, Киевское шоссе, 22-й км,\nБП ComCity, домовл.6, стр.1","phone":"8 (000) 123-45-67","mobilePhone":"8 (000) 123-45-67","id":106},"header":"Отсутствие отопления, все батареи холодные","text":"Agalarov.A.1749084965","createDate":1575276416392,"lastEditDate":1575276416396,"ticketState":"Новый","ticketStateId":-1,"serviceId":2854,"viewed":true,"syncMask":"PORTAL_ONLY","location":"default location","address":"default location","categories":["Инженерия","Отопление","Нарушение температурного режима (холод в магазине)"],"category1":"Инженерия","category2":"Отопление","category3":"Нарушение температурного режима (холод в магазине)","openCommunications":0,"totalCommunications":0,"actions":[]},{"id":149839,"applicant":{"fullName":"Алексей Карчевский","userName":"master","email":"a.karchevski@pflb.ru","location":"142784, г.Москва, Киевское шоссе, 22-й км,\nБП ComCity, домовл.6, стр.1","phone":"8 (000) 123-45-67","mobilePhone":"8 (000) 123-45-67","id":106},"header":"Отсутствие отопления, все батареи холодные","text":"Agalarov.A.1130364177","createDate":1575276385162,"lastEditDate":1575276385166,"ticketState":"Новый","ticketStateId":-1,"serviceId":2853,"syncMask":"PORTAL_ONLY","location":"default location","address":"default location","categories":["Инженерия","Отопление","Нарушение температурного режима (холод в магазине)"],"category1":"Инженерия","category2":"Отопление","category3":"Нарушение температурного режима (холод в магазине)","openCommunications":0,"totalCommunications":0,"actions":[]},{"id":149838,"applicant":{"fullName":"Алексей Карчевский","userName":"master","email":"a.karchevski@pflb.ru","location":"142784, г.Москва, Киевское шоссе, 22-й км,\nБП ComCity, домовл.6, стр.1","phone":"8 (000) 123-45-67","mobilePhone":"8 (000) 123-45-67","id":106},"header":"Течет масло","text":"Agalarov.A.1602450021","createDate":1575276358184,"lastEditDate":1575276358188,"ticketState":"Новый","ticketStateId":-1,"serviceId":2907,"inventoryNumber":"000008","inventoryId":8,"syncMask":"PORTAL_ONLY","location":"Барклая 24","address":"Барклая 24","categories":["Технологическое оборудование","Инженерное оборудование","Пресс"],"category1":"Технологическое оборудование","category2":"Инженерное оборудование","category3":"Пресс","openCommunications":0,"totalCommunications":0,"actions":[]},{"id":149837,"applicant":{"fullName":"Алексей Карчевский","userName":"master","email":"a.karchevski@pflb.ru","location":"142784, г.Москва, Киевское шоссе, 22-й км,\nБП ComCity, домовл.6, стр.1","phone":"8 (000) 123-45-67","mobilePhone":"8 (000) 123-45-67","id":106},"header":"Лифт издает посторонние звуки","text":"Ogdanets text 1","createDate":1575272701271,"lastEditDate":1575272701275,"ticketState":"Выполняется","ticketStateId":1,"serviceId":2925,"syncMask":"PORTAL_ONLY","location":"256 Бинарная ул. 16","address":"256 Бинарная ул. 16","taskId":149837,"taskState":"Решена","taskStateId":2,"categories":["Технологическое оборудование","Подъемные и передвижные механизмы","Пассажирские лифты"],"category1":"Технологическое оборудование","category2":"Подъемные и передвижные механизмы","category3":"Пассажирские лифты","canBeCanceled":false,"openCommunications":0,"totalCommunications":0,"actions":["solveTicket","cancelTicket","inventoryNumberChange","slaDateChange","comment"]},{"id":149836,"applicant":{"fullName":"Алексей Карчевский","userName":"master","email":"a.karchevski@pflb.ru","location":"142784, г.Москва, Киевское шоссе, 22-й км,\nБП ComCity, домовл.6, стр.1","phone":"8 (000) 123-45-67","mobilePhone":"8 (000) 123-45-67","id":106},"header":"Уничтожение муравьев","text":"Ogdanets text 5","createDate":1575272621916,"lastEditDate":1575272621920,"ticketState":"Выполняется","ticketStateId":1,"serviceId":2809,"syncMask":"PORTAL_ONLY","location":"Изумрудная 14","address":"Изумрудная 14","taskId":149836,"taskState":"Решена","taskStateId":2,"categories":["Экология","Дератизация, Дезинсекция, Дезинфекция","Уничтожение грызунов и насекомых, Дезинфекция"],"category1":"Экология","category2":"Дератизация, Дезинсекция, Дезинфекция","category3":"Уничтожение грызунов и насекомых, Дезинфекция","canBeCanceled":false,"openCommunications":0,"totalCommunications":0,"actions":["solveTicket","cancelTicket","inventoryNumberChange","slaDateChange","comment"]}],"last":false,"totalElements":405,"totalPages":41,"size":10,"number":0,"sort":[{"direction":"DESC","property":"id","ignoreCase":false,"nullHandling":"NATIVE","ascending":false,"descending":true}],"numberOfElements":10,"first":true}